{
  "type": "minecraft:crafting_shaped",
  "category": "building",
  "key": {
    "#": [
      {
        "item": "minecraft:bubble_coral"
      },
      {
        "item": "minecraft:bubble_coral_fan"
      }
    ]
  },
  "pattern": [
    "###",
    "###",
    "###"
  ],
  "result": {
    "id": "minecraft:bubble_coral_block",
    "count": 1
  }
}