{
  "type": "minecraft:crafting_shaped",
  "category": "misc",
  "key": {
    "#": [
      {
        "item": "minecraft:copper_block"
      },
      {
        "item": "minecraft:waxed_copper_block"
      }
    ],
    "D": {
      "item": "minecraft:diamond_block"
    },
    "S": {
      "item": "minecraft:bolt_armor_trim_smithing_template"
    }
  },
  "pattern": [
    "#S#",
    "#D#",
    "###"
  ],
  "result": {
    "count": 2,
    "id": "minecraft:bolt_armor_trim_smithing_template"
  }
}