{
  "parent": "minecraft:recipes/root",
  "criteria": {
    "has_fire_coral": {
      "trigger": "minecraft:inventory_changed",
      "conditions": {
        "items": [
          {
            "items": [
              "minecraft:fire_coral",
              "minecraft:fire_coral_fan"
            ]
          }
        ]
      }
    },
    "has_the_recipe": {
      "trigger": "minecraft:recipe_unlocked",
      "conditions": {
        "recipe": "corals-extra-craft:fire_coral_block"
      }
    }
  },
  "requirements": [
    [
      "has_fire_coral",
      "has_the_recipe"
    ]
  ],
  "rewards": {
    "recipes": [
      "corals-extra-craft:fire_coral_block"
    ]
  }
}