{
  "type": "minecraft:crafting_shaped",
  "category": "redstone",
  "key": {
    "#": {
      "item": "minecraft:iron_ingot"
    }
  },
  "pattern": [
    "##",
    "##",
    "##"
  ],
  "result": {
    "count": 1,
    "id": "minecraft:iron_door"
  }
}